Confg-Flash/Confg-Flash.sim/sim_1/behav/xsim/tb_spi_flash_bridge_core.vcd
$date
   Wed Apr  1 15:32:07 2026
$end
$version
  2018.3
$end
$timescale
  1ps
$end
$scope module tb_spi_flash_bridge_core $end
$var reg 1 ! clk $end
$var reg 1 " rst_n $end
$var reg 1 # cmd_valid $end
$var reg 40 $ cmd_word [39:0] $end
$var wire 40 % rsp_word [39:0] $end
$var wire 1 & spi_cclk_o $end
$var wire 1 ' spi_cs_o $end
$var wire 1 ( spi_io0_o $end
$var wire 1 ) spi_io0_t $end
$var wire 1 * spi_io1_i $end
$var wire 1 + spi_io1_o $end
$var wire 1 , spi_io1_t $end
$var wire 1 - spi_io2_o $end
$var wire 1 . spi_io2_t $end
$var wire 1 / spi_io3_o $end
$var wire 1 0 spi_io3_t $end
$var reg 8 1 rx_byte [7:0] $end
$var parameter 8 2 CMD_SET_CS [7:0] $end
$var parameter 8 3 CMD_XFER8 [7:0] $end
$var parameter 8 4 CMD_SET_DIV [7:0] $end
$var parameter 8 5 ST_OK [7:0] $end
$var parameter 8 6 ST_BUSY [7:0] $end
$scope module dut $end
$var wire 1 7 clk $end
$var wire 1 8 rst_n $end
$var wire 1 9 cmd_valid $end
$var wire 40 : cmd_word [39:0] $end
$var reg 40 ; rsp_word [39:0] $end
$var wire 1 & spi_cclk_o $end
$var wire 1 ' spi_cs_o $end
$var wire 1 ( spi_io0_o $end
$var wire 1 ) spi_io0_t $end
$var wire 1 * spi_io1_i $end
$var wire 1 + spi_io1_o $end
$var wire 1 , spi_io1_t $end
$var wire 1 - spi_io2_o $end
$var wire 1 . spi_io2_t $end
$var wire 1 / spi_io3_o $end
$var wire 1 0 spi_io3_t $end
$var reg 2 < state [1:0] $end
$var reg 16 = clk_div [15:0] $end
$var reg 16 > wait_cnt [15:0] $end
$var reg 8 ? tx_shift [7:0] $end
$var reg 8 @ rx_shift [7:0] $end
$var reg 8 A rx_sampled [7:0] $end
$var reg 3 B bit_index [2:0] $end
$var reg 1 C spi_cclk_reg $end
$var reg 1 D spi_cs_reg $end
$var reg 1 E spi_io0_reg $end
$var reg 1 F spi_io0_oe $end
$var parameter 8 G CMD_NOP [7:0] $end
$var parameter 8 H CMD_SET_CS [7:0] $end
$var parameter 8 I CMD_XFER8 [7:0] $end
$var parameter 8 J CMD_SET_DIV [7:0] $end
$var parameter 8 K CMD_STATUS [7:0] $end
$var parameter 8 L ST_OK [7:0] $end
$var parameter 8 M ST_BUSY [7:0] $end
$var parameter 8 N ST_BAD_CMD [7:0] $end
$var parameter 2 O S_IDLE [1:0] $end
$var parameter 2 P S_LOW_WAIT [1:0] $end
$var parameter 2 Q S_HIGH_WAIT [1:0] $end
$upscope $end
$scope module flash_model $end
$var wire 1 ' cs_n $end
$var wire 1 & sck $end
$var wire 1 ( mosi $end
$var wire 1 * miso $end
$var reg 8 R cmd_shift [7:0] $end
$var reg 3 S cmd_bit_count [2:0] $end
$var reg 24 T reply_shift [23:0] $end
$var reg 5 U reply_bits_left [4:0] $end
$var reg 1 V miso_reg $end
$var parameter 24 W JEDEC_ID [23:0] $end
$upscope $end
$scope task send_cmd $end
$var reg 8 X opcode [7:0] $end
$var reg 32 Y arg [31:0] $end
$upscope $end
$scope task expect_status $end
$var reg 192 Z tag [191:0] $end
$upscope $end
$scope task xfer8 $end
$var reg 8 [ tx_byte [7:0] $end
$var reg 8 \ rx_out [7:0] $end
$upscope $end
$scope task check_byte $end
$var reg 192 ] tag [191:0] $end
$var reg 8 ^ actual [7:0] $end
$var reg 8 _ expected [7:0] $end
$upscope $end
$upscope $end
$enddefinitions $end
#0
$dumpvars
0!
0"
0#
b0 $
b0 %
0&
1'
0(
1)
0*
0+
1,
1-
0.
1/
00
b0 1
b1 2
b10 3
b11 4
b0 5
b1 6
07
08
09
b0 :
b0 ;
b0 <
b110010 =
b0 >
b0 ?
b0 @
b0 A
b0 B
0C
1D
0E
0F
b0 G
b1 H
b10 I
b11 J
b100 K
b0 L
b1 M
b11101110 N
b0 O
b1 P
b10 Q
b0 R
b0 S
b0 T
b0 U
0V
b111011110100000000011000 W
bx X
bx Y
bx Z
bx [
bx \
bx ]
bx ^
bx _
$end
#5000
1!
17
0C
1D
0E
0F
#10000
0!
07
#15000
1!
17
0C
1D
0E
0F
#20000
0!
07
#25000
1!
17
0C
1D
0E
0F
#30000
0!
07
#35000
1!
17
0C
1D
0E
0F
#40000
0!
07
#45000
1!
1"
17
18
0C
#50000
0!
07
#55000
1!
17
0C
#60000
0!
07
#65000
1!
17
0C
#70000
0!
07
#75000
1!
17
0C
#80000
0!
07
#85000
1!
17
0C
#90000
0!
07
#95000
1!
17
0C
b1 X
b1 Y
#100000
0!
07
#105000
1!
1#
b100000001 $
17
19
b100000001 :
0C
#110000
0!
07
#115000
1!
0#
b0 $
b1 %
17
09
b0 :
b1 ;
0C
1D
b101001101000101010101000101111101000011010100110010000001101000011010010110011101101000 Z
#120000
0!
07
#125000
1!
17
0C
b11 X
b10 Y
#130000
0!
07
#135000
1!
1#
b1000000011 $
17
19
b1000000011 :
0C
#140000
0!
07
#145000
1!
0#
b0 $
b10 %
17
09
b0 :
b10 ;
b10 =
0C
b1010011010001010101010001011111010001000100100101010110 Z
#150000
0!
07
#155000
1!
17
0C
b1 X
b0 Y
#160000
0!
07
#165000
1!
1#
b1 $
17
19
b1 :
0C
#170000
0!
07
#175000
1!
0#
b0 $
b0 %
0'
17
09
b0 :
b0 ;
0C
0D
b1010011010001010101010001011111010000110101001100100000011011000110111101110111 Z
#180000
0!
07
#185000
1!
17
0C
b10 X
b10011111 Y
b10011111 [
#190000
0!
07
#195000
1!
1#
b1001111100000010 $
17
19
b1001111100000010 :
0C
#200000
0!
07
#205000
1!
0#
b0 $
b100000000000000000000000000000000 %
1(
0)
17
09
b0 :
b100000000000000000000000000000000 ;
b1 <
b10 >
b10011111 ?
b111 B
0C
1E
1F
#210000
0!
07
#215000
1!
17
b1 >
#220000
0!
07
#225000
1!
17
b0 >
#230000
0!
07
#235000
1!
1&
17
b10 <
b10 >
1C
b1 R
b1 S
#240000
0!
07
#245000
1!
17
b1 >
#250000
0!
07
#255000
1!
17
b0 >
#260000
0!
07
#265000
1!
0&
0(
17
b1 <
b10 >
b111110 ?
b110 B
0C
0E
0V
#270000
0!
07
#275000
1!
17
b1 >
#280000
0!
07
#285000
1!
17
b0 >
#290000
0!
07
#295000
1!
1&
17
b10 <
b10 >
1C
b10 R
b10 S
#300000
0!
07
#305000
1!
17
b1 >
#310000
0!
07
#315000
1!
17
b0 >
#320000
0!
07
#325000
1!
0&
17
b1 <
b10 >
b1111100 ?
b101 B
0C
0E
0V
#330000
0!
07
#335000
1!
17
b1 >
#340000
0!
07
#345000
1!
17
b0 >
#350000
0!
07
#355000
1!
1&
17
b10 <
b10 >
1C
b100 R
b11 S
#360000
0!
07
#365000
1!
17
b1 >
#370000
0!
07
#375000
1!
17
b0 >
#380000
0!
07
#385000
1!
0&
1(
17
b1 <
b10 >
b11111000 ?
b100 B
0C
1E
0V
#390000
0!
07
#395000
1!
17
b1 >
#400000
0!
07
#405000
1!
17
b0 >
#410000
0!
07
#415000
1!
1&
17
b10 <
b10 >
1C
b1001 R
b100 S
#420000
0!
07
#425000
1!
17
b1 >
#430000
0!
07
#435000
1!
17
b0 >
#440000
0!
07
#445000
1!
0&
17
b1 <
b10 >
b11110000 ?
b11 B
0C
1E
0V
#450000
0!
07
#455000
1!
17
b1 >
#460000
0!
07
#465000
1!
17
b0 >
#470000
0!
07
#475000
1!
1&
17
b10 <
b10 >
1C
b10011 R
b101 S
#480000
0!
07
#485000
1!
17
b1 >
#490000
0!
07
#495000
1!
17
b0 >
#500000
0!
07
#505000
1!
0&
17
b1 <
b10 >
b11100000 ?
b10 B
0C
1E
0V
#510000
0!
07
#515000
1!
17
b1 >
#520000
0!
07
#525000
1!
17
b0 >
#530000
0!
07
#535000
1!
1&
17
b10 <
b10 >
1C
b100111 R
b110 S
#540000
0!
07
#545000
1!
17
b1 >
#550000
0!
07
#555000
1!
17
b0 >
#560000
0!
07
#565000
1!
0&
17
b1 <
b10 >
b11000000 ?
b1 B
0C
1E
0V
#570000
0!
07
#575000
1!
17
b1 >
#580000
0!
07
#585000
1!
17
b0 >
#590000
0!
07
#595000
1!
1&
17
b10 <
b10 >
1C
b1001111 R
b111 S
#600000
0!
07
#605000
1!
17
b1 >
#610000
0!
07
#615000
1!
17
b0 >
#620000
0!
07
#625000
1!
0&
17
b1 <
b10 >
b10000000 ?
b0 B
0C
1E
0V
#630000
0!
07
#635000
1!
17
b1 >
#640000
0!
07
#645000
1!
17
b0 >
#650000
0!
07
#655000
1!
1&
17
b10 <
b10 >
1C
b10011111 R
b0 S
b111011110100000000011000 T
b11000 U
#660000
0!
07
#665000
1!
17
b1 >
#670000
0!
07
#675000
1!
17
b0 >
#680000
0!
07
#685000
1!
b0 %
0&
1*
17
b0 ;
b0 <
0C
b110111101000000000110000 T
b10111 U
1V
#690000
0!
07
#695000
1!
17
0C
b11111111 Y
b11111111 [
b0 \
#700000
0!
07
#705000
1!
1#
b1111111100000010 $
17
19
b1111111100000010 :
0C
#710000
0!
07
#715000
1!
0#
b0 $
b100000000000000000000000000000000 %
17
09
b0 :
b100000000000000000000000000000000 ;
b1 <
b10 >
b11111111 ?
b111 B
0C
1E
1F
#720000
0!
07
#725000
1!
17
b1 >
#730000
0!
07
#735000
1!
17
b0 >
#740000
0!
07
#745000
1!
1&
17
b10 <
b10 >
b1 @
b1 A
1C
b111111 R
b1 S
#750000
0!
07
#755000
1!
17
b1 >
#760000
0!
07
#765000
1!
17
b0 >
#770000
0!
07
#775000
1!
0&
17
b1 <
b10 >
b11111110 ?
b110 B
0C
1E
b101111010000000001100000 T
b10110 U
1V
#780000
0!
07
#785000
1!
17
b1 >
#790000
0!
07
#795000
1!
17
b0 >
#800000
0!
07
#805000
1!
1&
17
b10 <
b10 >
b11 @
b11 A
1C
b1111111 R
b10 S
#810000
0!
07
#815000
1!
17
b1 >
#820000
0!
07
#825000
1!
17
b0 >
#830000
0!
07
#835000
1!
0&
17
b1 <
b10 >
b11111100 ?
b101 B
0C
1E
b11110100000000011000000 T
b10101 U
1V
#840000
0!
07
#845000
1!
17
b1 >
#850000
0!
07
#855000
1!
17
b0 >
#860000
0!
07
#865000
1!
1&
17
b10 <
b10 >
b111 @
b111 A
1C
b11111111 R
b11 S
#870000
0!
07
#875000
1!
17
b1 >
#880000
0!
07
#885000
1!
17
b0 >
#890000
0!
07
#895000
1!
0&
0*
17
b1 <
b10 >
b11111000 ?
b100 B
0C
1E
b111101000000000110000000 T
b10100 U
0V
#900000
0!
07
#905000
1!
17
b1 >
#910000
0!
07
#915000
1!
17
b0 >
#920000
0!
07
#925000
1!
1&
17
b10 <
b10 >
b1110 @
b1110 A
1C
b100 S
#930000
0!
07
#935000
1!
17
b1 >
#940000
0!
07
#945000
1!
17
b0 >
#950000
0!
07
#955000
1!
0&
1*
17
b1 <
b10 >
b11110000 ?
b11 B
0C
1E
b111010000000001100000000 T
b10011 U
1V
#960000
0!
07
#965000
1!
17
b1 >
#970000
0!
07
#975000
1!
17
b0 >
#980000
0!
07
#985000
1!
1&
17
b10 <
b10 >
b11101 @
b11101 A
1C
b101 S
#990000
0!
07
#995000
1!
17
b1 >
